Data Descriptives, Visualization, & Machine Learning
…
delta <- abs(lasso_coefs$lambda - highest_accuracy$penalty)
lambda_opt <- lasso_coefs$lambda[which.min(delta)]

labelled_coefs <- lasso_coefs %>%
  mutate(abs_estimate = abs(estimate)) %>%
  filter(abs_estimate >= 0.01) %>%
  distinct(term) %>%
  inner_join(lasso_coefs, by = "term") %>%
  filter(lambda == lambda_opt) %>%
  select(term, estimate)

labelled_coefs

## # A tibble: 33 x 2
##    term       estimate
##    <chr>         <dbl>
##  1 vote00       1.79  
##  2 vote98       1.11  
##  3 age          0.0815
##  4 persons      0.237 
##  5 st_sen_X3    0.105 
##  6 st_sen_X8   -0.327 
##  7 st_hse_X19   0.184 
##  8 st_hse_X5   -0.717 
##  9 st_hse_X16  -0.628 
## 10 st_hse_X18  -0.419 
## #  with 23 more rows
…
